A wrapper for the javascript `heat-tree` package for interactive phylogenetic tree visualization widgets • heattree
…
You can also supply metadata for the tree by supplying a path to a TSV/CSV or a data.frame/tibble.

This table must have a “node_id” column with values matching the IDs in the treefile. For example, this data is associated with the above example tree:

example_metadata_path <- system.file('extdata', 'example_metadata_1.tsv', package = 'heattree')
print(example_metadata_path)

## [1] "/home/fosterz/R/x86_64-pc-linux-gnu-library/4.5/heattree/extdata/example_metadata_1.tsv"

example_metadata <- readr::read_tsv(example_metadata_path)
print(example_metadata)

## # A tibble: 31 × 5
##    node_id         abundance frequency source  font_style
##    <chr>               <dbl>     <dbl> <chr>   <chr>     
##  1 GCF_001456355_1       145      0.23 farm    normal    
##  2 GCF_004924335_1       892      0.67 nursery normal    
##  3 GCF_001605725_1       234      0.45 city    normal    
##  4 SAMN11100995          567      0.89 other   italic    
##  5 SAMN11100993          123      0.12 farm    italic    
##  6 SAMN11100994          456      0.34 nursery italic    
##  7 GCF_965135695_1       789      0.56 city    normal    
##  8 SAMN11100996          321      0.78 other   italic    
##  9 GCF_000015305_1       654      0.23 farm    normal    
## 10 GCF_022370835_2       987      0.91 nursery bold      
## # ℹ 21 more rows
…
