Getting started • heattree
…
heat_tree(example_tree_path)
heat_tree(example_text)
heat_tree(example_phylo)

You can also supply metadata for the tree by supplying a path to a
TSV/CSV or a data.frame/tibble.

This table must have a “node_id” column with values matching the IDs
in the treefile. For example, this data is associated with the above
example tree:

example_metadata_path <- system.file('extdata', 'bansal_2021_metadata.tsv', package = 'heattree')
example_metadata <- readr::read_tsv(example_metadata_path)
print(example_metadata)
#> # A tibble: 76 × 15
#>    Strain      `Genome size`   CDS `Genome status` `Source/Host` `Host taxonomy`
#>    <chr>               <dbl> <dbl> <chr>           <chr>         <chr>          
#>  1 Xanthomona…           4.9  3960 Draft           Sorghum vulg… Tracheophytes,…
#>  2 Xanthomona…           4.2  3385 Draft           Oryza sativa… Tracheophytes,…
#>  3 Xanthomona…           5.1  4416 Complete        Infected pep… Tracheophytes,…
#>  4 Xanthomona…           5    3937 Draft           Medicago sat… Tracheophytes,…
#>  5 Xanthomona…           5    4206 Draft           Leaves of So… Tracheophytes,…
#>  6 Xanthomona…           5    4175 Complete        Phaseolus vu… Tracheophytes,…
#>  7 Xanthomona…           5.1  4355 Draft           Citrus auran… Tracheophytes,…
#>  8 Xanthomona…           4.4  3263 Draft           Axonopus sco… Tracheophytes,…
#>  9 Xanthomona…           5.3  4208 Draft           Prunus persi… Tracheophytes,…
#> 10 Xanthomona…           4.9  3845 Draft           Bromus carin… Tracheophytes,…
#> # ℹ 66 more rows
#> # ℹ 9 more variables: Lifestyle <chr>, Location <chr>, `Isolation year` <dbl>,
#> #   `GC%` <dbl>, `# tRNA` <dbl>, Species <chr>, `Tree ID` <chr>,
#> #   Completeness <dbl>, Contamination <dbl>
…
