…
    Note: `manualZoomAndPanEnabled = FALSE` is used in these examples since the visualizations are part of a scrollable document and the zoom interfers with scrolling. By default, plots can be zoomed and panned. Remove `manualZoomAndPanEnabled = FALSE` to try it out.

You can also supply metadata for the tree by supplying a path to a
TSV/CSV or a `data.frame`/`tibble`.

This table must have a column with values matching the IDs in the tree
file. `heattree` will automatically identify which column has the IDs,
so it can have any name. For example, this data is associated with the
above example tree:

``` r
weisberg_2020_metadata_path <- system.file('extdata', 'weisberg_2020_metadata.tsv', package = 'heattree')
weisberg_2020_metadata <- readr::read_tsv(weisberg_2020_metadata_path)
print(weisberg_2020_metadata)
#> # A tibble: 148 × 13
#>    strain   species genus genomospecies host  host_type opine_type year_isolated
#>    <chr>    <chr>   <chr> <chr>         <chr> <chr>     <chr>              <dbl>
#>  1 Rhizobi… Rhizob… Rhiz… Biovar 2      Rose  Woody     Agrocinop…          1979
#>  2 Rhizobi… Rhizob… Rhiz… Biovar 2      Grape Grape (W… NA                  1995
#>  3 Agrobac… Agroba… Agro… Agrobacteriu… Euon… Woody     Agrocinop…          1973
#>  4 Rhizobi… Rhizob… Rhiz… Biovar 2      Rose  Woody     Nopaline              NA
#>  5 Rhizobi… Rhizob… Rhiz… Biovar 2      Cher… Woody     Nopaline            2008
#>  6 Agrobac… Agroba… Agro… Biovar 1      Ston… Herbaceo… Nopaline            1958
#>  7 Rhizobi… Rhizob… Rhiz… Biovar 2      Grape Grape (W… Nopaline            1995
#>  8 Allorhi… Allorh… Allo… Biovar 3      Grape Grape (W… Vitopine/…          1995
#>  9 Rhizobi… Rhizob… Rhiz… Biovar 2      Olal… Woody     Nopaline            1993
#> 10 Rhizobi… Rhizob… Rhiz… Biovar 2      Peach Woody     Nopaline            2009
#> # ℹ 138 more rows
#> # ℹ 5 more variables: plasmid_class <chr>, plasmid_type <chr>,
#> #   ncbi_accession <chr>, mlsa_node_id <chr>, beast_node_id <chr>
```
…
